[
  {
    "phi": 0,
    "p": 35,
    "ad": 0,
    "ptmp": 1
  },
  {
    "phi": 15,
    "p": 35,
    "ad": 0,
    "ptmp": 1
  },
  {
    "phi": 30,
    "p": 35,
    "ad": 0,
    "ptmp": 1
  },
  {
    "phi": 45,
    "p": 35,
    "ad": 0,
    "ptmp": 1
  },
  {
    "phi": 60,
    "p": 35,
    "ad": 0,
    "ptmp": 1
  },
  {
    "phi": 75,
    "p": 35,
    "ad": 0,
    "ptmp": 1
  },
  {
    "phi": 90,
    "p": 30,
    "ad": 5,
    "ptmp": 1
  },
  {
    "phi": 105,
    "p": 27,
    "ad": 8,
    "ptmp": 1
  },
  {
    "phi": 120,
    "p": 20,
    "ad": 15,
    "ptmp": 1
  },
  {
    "phi": 135,
    "p": 20,
    "ad": 15,
    "ptmp": 1
  },
  {
    "phi": 150,
    "p": 20,
    "ad": 15,
    "ptmp": 1
  },
  {
    "phi": 165,
    "p": 20,
    "ad": 15,
    "ptmp": 1
  },
  {
    "phi": 180,
    "p": 20,
    "ad": 15,
    "ptmp": 1
  },
  {
    "phi": 195,
    "p": 20,
    "ad": 15,
    "ptmp": 1
  },
  {
    "phi": 210,
    "p": 20,
    "ad": 15,
    "ptmp": 1
  },
  {
    "phi": 225,
    "p": 20,
    "ad": 15,
    "ptmp": 1
  },
  {
    "phi": 240,
    "p": 20,
    "ad": 15,
    "ptmp": 1
  },
  {
    "phi": 255,
    "p": 27,
    "ad": 8,
    "ptmp": 1
  },
  {
    "phi": 270,
    "p": 30,
    "ad": 5,
    "ptmp": 1
  },
  {
    "phi": 285,
    "p": 35,
    "ad": 0,
    "ptmp": 1
  },
  {
    "phi": 300,
    "p": 35,
    "ad": 0,
    "ptmp": 1
  },
  {
    "phi": 315,
    "p": 35,
    "ad": 0,
    "ptmp": 1
  },
  {
    "phi": 330,
    "p": 35,
    "ad": 0,
    "ptmp": 1
  },
  {
    "phi": 345,
    "p": 35,
    "ad": 0,
    "ptmp": 1
  },
  {
    "phi": 0,
    "p": 22,
    "ad": 0,
    "ptmp": 0
  },
  {
    "phi": 0.2,
    "p": 22,
    "ad": 0,
    "ptmp": 0
  },
  {
    "phi": 0.5,
    "p": 21,
    "ad": 1,
    "ptmp": 0
  },
  {
    "phi": 1,
    "p": 20,
    "ad": 2,
    "ptmp": 0
  },
  {
    "phi": 2,
    "p": 19,
    "ad": 3,
    "ptmp": 0
  },
  {
    "phi": 5,
    "p": 11,
    "ad": 11,
    "ptmp": 0
  },
  {
    "phi": 10,
    "p": 8,
    "ad": 14,
    "ptmp": 0
  },
  {
    "phi": 20,
    "p": 5,
    "ad": 17,
    "ptmp": 0
  },
  {
    "phi": 50,
    "p": 1,
    "ad": 21,
    "ptmp": 0
  },
  {
    "phi": 100,
    "p": -3,
    "ad": 25,
    "ptmp": 0
  },
  {
    "phi": 180,
    "p": -3,
    "ad": 25,
    "ptmp": 0
  },
  {
    "phi": 260,
    "p": -3,
    "ad": 25,
    "ptmp": 0
  },
  {
    "phi": 310,
    "p": 1,
    "ad": 21,
    "ptmp": 0
  },
  {
    "phi": 340,
    "p": 5,
    "ad": 17,
    "ptmp": 0
  },
  {
    "phi": 350,
    "p": 8,
    "ad": 14,
    "ptmp": 0
  },
  {
    "phi": 355,
    "p": 11,
    "ad": 11,
    "ptmp": 0
  },
  {
    "phi": 358,
    "p": 19,
    "ad": 3,
    "ptmp": 0
  },
  {
    "phi": 359,
    "p": 20,
    "ad": 2,
    "ptmp": 0
  },
  {
    "phi": 359.5,
    "p": 21,
    "ad": 1,
    "ptmp": 0
  },
  {
    "phi": 359.8,
    "p": 22,
    "ad": 0,
    "ptmp": 0
  }
]