<svg width="16" height="16" viewBox="0 0 16 16" fill="none" xmlns="http://www.w3.org/2000/svg">
<path fill-rule="evenodd" clip-rule="evenodd" d="M9.72675 3.17105C9.40701 2.90773 8.93434 2.95347 8.67102 3.27322L5.17102 7.52322C4.94295 7.80016 4.94295 8.19984 5.17102 8.47678L8.67102 12.7268C8.93434 13.0465 9.40701 13.0923 9.72675 12.8289C10.0465 12.5656 10.0922 12.093 9.82892 11.7732L6.72156 8L9.82892 4.22678C10.0922 3.90703 10.0465 3.43437 9.72675 3.17105Z" fill="black"/>
</svg>
