<svg width="16" height="16" viewBox="0 0 16 16" fill="none" xmlns="http://www.w3.org/2000/svg">
<path fill-rule="evenodd" clip-rule="evenodd" d="M8 2.5C4.8346 2.5 2.5 4.63191 2.5 7C2.5 9.36809 4.8346 11.5 8 11.5C8.38646 11.5 8.7629 11.4673 9.12566 11.4054C9.32147 11.3719 9.52255 11.4175 9.68477 11.5322C10.3865 12.028 11.0078 12.465 11.5 12.8102V10.8494C11.5 10.6182 11.6066 10.3999 11.789 10.2578C12.8672 9.41743 13.5 8.2536 13.5 7C13.5 4.63191 11.1654 2.5 8 2.5ZM12.25 14.25L11.8216 14.8656L11.5981 14.7098C11.4533 14.6087 11.2421 14.4611 10.9762 14.2749C10.4951 13.9379 9.83491 13.4744 9.06532 12.9311C8.71758 12.9765 8.36178 13 8 13C4.26184 13 1 10.4309 1 7C1 3.5691 4.26184 1 8 1C11.7382 1 15 3.5691 15 7C15 8.6602 14.2182 10.1374 13 11.2024V14.2498L12.25 14.25ZM12.25 14.25L13 14.2498C13 14.5291 12.8448 14.7855 12.5973 14.9148C12.3497 15.0441 12.0508 15.0251 11.8216 14.8656L12.25 14.25Z" fill="black"/>
</svg>
