<svg width="20" height="20" viewBox="0 0 20 20" fill="none" xmlns="http://www.w3.org/2000/svg">
<path fill-rule="evenodd" clip-rule="evenodd" d="M7.14935 7.47427C7.33156 7.17945 7.65342 7 8 7H12C12.3466 7 12.6684 7.17945 12.8507 7.47427C13.0329 7.76909 13.0494 8.13723 12.8944 8.44721L10.8944 12.4472C10.725 12.786 10.3788 13 10 13C9.62123 13 9.27497 12.786 9.10557 12.4472L7.10557 8.44721C6.95058 8.13723 6.96714 7.76909 7.14935 7.47427Z" fill="#718096"/>
</svg>
