<svg width="24" height="24" viewBox="0 0 24 24" fill="none" xmlns="http://www.w3.org/2000/svg">
<path d="M17.7071 3.29289C17.3166 2.90237 16.6834 2.90237 16.2929 3.29289C15.9024 3.68342 15.9024 4.31658 16.2929 4.70711L19.2929 7.70711C19.6834 8.09763 20.3166 8.09763 20.7071 7.70711C21.0976 7.31658 21.0976 6.68342 20.7071 6.29289L17.7071 3.29289Z" fill="black"/>
<path fill-rule="evenodd" clip-rule="evenodd" d="M14.7071 6.29289C14.3166 5.90237 13.6834 5.90237 13.2929 6.29289L3.29289 16.2929C3.10536 16.4804 3 16.7348 3 17V20C3 20.5523 3.44772 21 4 21H7C7.26522 21 7.51957 20.8946 7.70711 20.7071L17.7071 10.7071C18.0976 10.3166 18.0976 9.68342 17.7071 9.29289L14.7071 6.29289ZM5 19V17.4142L14 8.41421L15.5858 10L6.58579 19H5Z" fill="black"/>
</svg>
