<svg width="16" height="21" viewBox="0 0 16 21" fill="none" xmlns="http://www.w3.org/2000/svg">
<path fill-rule="evenodd" clip-rule="evenodd" d="M11 14C11 15.6569 9.65685 17 8 17C6.34315 17 5 15.6569 5 14C5 12.3431 6.34315 11 8 11C9.65685 11 11 12.3431 11 14ZM9 14C9 14.5523 8.55228 15 8 15C7.44772 15 7 14.5523 7 14C7 13.4477 7.44772 13 8 13C8.55228 13 9 13.4477 9 14Z" fill="#718096"/>
<path fill-rule="evenodd" clip-rule="evenodd" d="M3 5V7C1.34315 7 0 8.34315 0 10V18C0 19.6569 1.34315 21 3 21H13C14.6569 21 16 19.6569 16 18V10C16 8.34315 14.6569 7 13 7V5C13 2.23858 10.7614 0 8 0C5.23858 0 3 2.23858 3 5ZM8 2C6.34315 2 5 3.34315 5 5V7H11V5C11 3.34315 9.65685 2 8 2ZM3 9C2.44772 9 2 9.44772 2 10V18C2 18.5523 2.44772 19 3 19H13C13.5523 19 14 18.5523 14 18V10C14 9.44772 13.5523 9 13 9H3Z" fill="#718096"/>
</svg>
