<svg width="40" height="40" viewBox="0 0 40 40" fill="none" xmlns="http://www.w3.org/2000/svg">
<path fill-rule="evenodd" clip-rule="evenodd" d="M26.5 13.5C26.5 17.0899 23.5899 20 20 20C16.4101 20 13.5 17.0899 13.5 13.5C13.5 9.91015 16.4101 7 20 7C23.5899 7 26.5 9.91015 26.5 13.5ZM23.5 13.5C23.5 15.433 21.933 17 20 17C18.067 17 16.5 15.433 16.5 13.5C16.5 11.567 18.067 10 20 10C21.933 10 23.5 11.567 23.5 13.5Z" fill="black"/>
<path fill-rule="evenodd" clip-rule="evenodd" d="M20 22C14.6092 22 10.8683 23.9266 8.95028 25.2369C7.5735 26.1775 7 27.7229 7 29.1569V31.5C7 32.3284 7.67157 33 8.5 33H31.5C32.3284 33 33 32.3284 33 31.5V29.1569C33 27.7229 32.4265 26.1775 31.0497 25.2369C29.1317 23.9266 25.3908 22 20 22ZM10.6426 27.7141C12.1942 26.6541 15.3555 25 20 25C24.6445 25 27.8058 26.6541 29.3574 27.7141C29.7326 27.9704 30 28.4691 30 29.1569V30H10V29.1569C10 28.4691 10.2674 27.9704 10.6426 27.7141Z" fill="black"/>
</svg>
