<svg width="24" height="24" viewBox="0 0 24 24" fill="none" xmlns="http://www.w3.org/2000/svg">
<path fill-rule="evenodd" clip-rule="evenodd" d="M12 8C9.79086 8 8 9.79086 8 12C8 14.2091 9.79086 16 12 16C14.2091 16 16 14.2091 16 12C16 9.79086 14.2091 8 12 8ZM10 12C10 10.8954 10.8954 10 12 10C13.1046 10 14 10.8954 14 12C14 13.1046 13.1046 14 12 14C10.8954 14 10 13.1046 10 12Z" fill="black"/>
<path fill-rule="evenodd" clip-rule="evenodd" d="M22.9188 12.3948C23.0266 12.1432 23.0266 11.8568 22.9188 11.6052L22.9173 11.6018L22.9143 11.5949L22.9049 11.5736C22.8971 11.5561 22.8863 11.5321 22.8724 11.5021C22.8447 11.4419 22.8046 11.3574 22.7519 11.252C22.6465 11.0413 22.4904 10.7462 22.2812 10.3948C21.8639 9.69378 21.2294 8.75824 20.3578 7.81955C18.6151 5.9428 15.8681 4 12 4C8.13186 4 5.3849 5.9428 3.64221 7.81955C2.77057 8.75824 2.13609 9.69378 1.71884 10.3948C1.50965 10.7462 1.3535 11.0413 1.24815 11.252C1.19544 11.3574 1.15534 11.4419 1.12757 11.5021C1.11368 11.5321 1.10287 11.5561 1.0951 11.5736L1.08571 11.5949L1.08272 11.6018L1.08165 11.6042L1.08122 11.6052C0.973412 11.8568 0.973052 12.1424 1.08086 12.3939L1.08165 12.3958L1.08272 12.3982L1.08571 12.4051L1.0951 12.4264C1.10287 12.4439 1.11368 12.4679 1.12757 12.4979C1.15534 12.5581 1.19544 12.6426 1.24815 12.748C1.3535 12.9587 1.50965 13.2538 1.71884 13.6052C2.13609 14.3062 2.77057 15.2418 3.64221 16.1805C5.3849 18.0572 8.13186 20 12 20C15.8681 20 18.6151 18.0572 20.3578 16.1805C21.2294 15.2418 21.8639 14.3062 22.2812 13.6052C22.4904 13.2538 22.6465 12.9587 22.7519 12.748C22.8046 12.6426 22.8447 12.5581 22.8724 12.4979C22.8863 12.4679 22.8971 12.4439 22.9049 12.4264L22.9143 12.4051L22.9173 12.3982L22.9188 12.3948ZM3.43742 12.5823C3.30216 12.355 3.19386 12.1573 3.11184 12C3.19386 11.8427 3.30216 11.645 3.43742 11.4177C3.80142 10.8062 4.35444 9.99176 5.1078 9.18045C6.61511 7.55719 8.86815 6 12 6C15.1319 6 17.3849 7.55719 18.8922 9.18045C19.6456 9.99176 20.1986 10.8062 20.5626 11.4177C20.6979 11.645 20.8061 11.8427 20.8882 12C20.8061 12.1573 20.6979 12.355 20.5626 12.5823C20.1986 13.1938 19.6456 14.0082 18.8922 14.8195C17.3849 16.4428 15.1319 18 12 18C8.86815 18 6.61511 16.4428 5.1078 14.8195C4.35444 14.0082 3.80142 13.1938 3.43742 12.5823ZM22 12C22.9191 11.6061 22.919 11.6057 22.9188 11.6052L22 12ZM22.9188 12.3948C22.919 12.3943 22.9191 12.3939 22 12L22.9188 12.3948ZM2 12L1.08122 11.6052C1.08103 11.6057 1.08086 11.6061 2 12ZM1.08086 12.3939L1.99866 12.0006C1.08778 12.391 1.08073 12.3935 1.08086 12.3939Z" fill="black"/>
</svg>
