<svg width="24" height="24" viewBox="0 0 24 24" fill="none" xmlns="http://www.w3.org/2000/svg">
<path d="M11 10C11 9.44771 11.4477 9 12 9C12.5523 9 13 9.44771 13 10V13C13 13.5523 12.5523 14 12 14C11.4477 14 11 13.5523 11 13V10Z" fill="black"/>
<path d="M12 15C11.4477 15 11 15.4477 11 16C11 16.5523 11.4477 17 12 17C12.5523 17 13 16.5523 13 16C13 15.4477 12.5523 15 12 15Z" fill="black"/>
<path fill-rule="evenodd" clip-rule="evenodd" d="M9.35632 3.57771C10.489 1.4741 13.5031 1.47409 14.6357 3.5777L21.6327 16.573C22.7098 18.5733 21.2628 21 18.993 21H4.99903C2.7293 21 1.28231 18.5733 2.35932 16.573L9.35632 3.57771ZM12.8759 4.52747C12.4984 3.82627 11.4937 3.82626 11.1161 4.52747L4.11913 17.5228C3.76013 18.1895 4.24245 18.9984 4.99903 18.9984H18.993C19.7496 18.9984 20.2319 18.1895 19.8729 17.5228L12.8759 4.52747Z" fill="black"/>
</svg>
