<svg width="12" height="12" viewBox="0 0 12 12" fill="none" xmlns="http://www.w3.org/2000/svg">
<path fill-rule="evenodd" clip-rule="evenodd" d="M4.99999 0C2.23857 0 0 2.23857 0 4.99999C0 7.76141 2.23857 9.99999 4.99999 9.99999C6.01908 9.99999 6.96696 9.69511 7.75739 9.17159L10.2929 11.7071C10.6834 12.0976 11.3166 12.0976 11.7071 11.7071C12.0976 11.3166 12.0976 10.6834 11.7071 10.2929L9.1716 7.75737C9.69511 6.96694 9.99999 6.01907 9.99999 4.99999C9.99999 2.23857 7.76141 0 4.99999 0ZM2 4.99999C2 3.34314 3.34314 2 4.99999 2C6.65685 2 7.99999 3.34314 7.99999 4.99999C7.99999 6.65685 6.65685 7.99999 4.99999 7.99999C3.34314 7.99999 2 6.65685 2 4.99999Z" fill="black"/>
</svg>
