<svg width="32" height="32" viewBox="0 0 32 32" fill="none" xmlns="http://www.w3.org/2000/svg">
<path d="M0.523453 12.9456C0.523453 12.9456 9.1263 5.15243 22.0975 10.635C22.5302 10.8179 18.7704 9.54603 13.008 10.2897C4.80238 11.3481 1.29236 15.7745 2.02323 15.3211C5.91696 12.9048 9.28578 12.3171 15.1411 11.9824C24.9204 11.4233 29.97 15.6614 29.97 15.6614L16.1996 0.0253983L0.523453 12.9456Z" fill="#D07527"/>
<path d="M31.4853 18.9284C31.4853 18.9284 22.9512 26.7971 9.93245 21.429C9.49807 21.2497 13.2691 22.4883 19.0247 21.6942C27.2204 20.5633 30.6913 16.1063 29.9647 16.5663C26.0923 19.0167 22.7288 19.634 16.8768 20.0201C7.10264 20.6656 2.01566 16.4717 2.01566 16.4717L15.9235 31.9861L31.4853 18.9284Z" fill="#333F7F"/>
<path d="M13.1539 14.5072C12.7724 14.3559 12.5181 14.3014 12.2032 14.3014C11.0105 14.3014 10.0664 15.2457 10.0664 16.4384C10.0664 16.9531 10.2295 17.4131 10.5445 17.7705C10.9562 18.2427 11.5919 18.5333 12.2154 18.5333C12.5061 18.5333 12.6575 18.5028 13.1539 18.3334V17.0925C12.8812 17.3829 12.5908 17.516 12.2458 17.516C11.9974 17.516 11.7494 17.4314 11.5495 17.2741C11.2892 17.0679 11.1621 16.7958 11.1621 16.4326C11.1621 15.7847 11.6161 15.3183 12.2458 15.3183C12.609 15.3183 12.9057 15.4639 13.1539 15.7604V14.5072ZM13.2446 13.339L12.9538 12.8786L12.0157 13.3511L11.0712 12.8786L10.7806 13.339L12.0157 14.0653L13.2446 13.339ZM16.3374 15.2761H17.2093V14.3863H14.4368V15.2761H15.2903V18.4241H16.3374V15.2761ZM19.6269 14.3863H18.5794V16.717C18.5794 17.3101 18.6581 17.6433 18.8699 17.9219C19.1486 18.297 19.6933 18.5271 20.3109 18.5271C20.8982 18.5271 21.3705 18.3334 21.7033 17.9579C21.9938 17.6311 22.0968 17.3101 22.0968 16.717V14.3863H21.0497V16.5716C21.0497 16.9955 21.0316 17.1164 20.9406 17.2741C20.8315 17.4738 20.5953 17.6007 20.3292 17.6007C20.0748 17.6007 19.857 17.4857 19.7419 17.292C19.639 17.1226 19.6269 17.0319 19.6269 16.5716V14.3863ZM21.3401 13.363L20.7832 12.8545L19.9054 13.6838L20.3109 14.0653L21.3401 13.363Z" fill="#333F7F"/>
</svg>
